Join graphs on common nodes — graph_join • tidygraph
…
gr1 <- create_notable('bull') %>%
  activate(nodes) %>%
  mutate(name = letters[1:5])
gr2 <- create_ring(10) %>%
  activate(nodes) %>%
  mutate(name = letters[4:13])

gr1 %>% graph_join(gr2)
#> Joining with `by = join_by(name)`
#> # A tbl_graph: 13 nodes and 15 edges
#> #
#> # A directed acyclic simple graph with 1 component
#> #
#> # A tibble: 13 × 1
#>   name 
#>   <chr>
#> 1 a    
#> 2 b    
#> 3 c    
#> 4 d    
#> 5 e    
#> 6 f    
#> # ℹ 7 more rows
#> #
#> # A tibble: 15 × 2
#>    from    to
#>   <int> <int>
#> 1     1     2
#> 2     1     3
#> 3     2     3
#> # ℹ 12 more rows
…
