Create a temporary alternative representation of the graph to compute on — morph • tidygraph
…
    Examples

create_notable('meredith') %>%
  mutate(group = group_infomap()) %>%
  morph(to_contracted, group) %>%
  mutate(group_centrality = centrality_pagerank()) %>%
  unmorph()
#> # A tbl_graph: 70 nodes and 140 edges
#> #
#> # An undirected simple graph with 1 component
#> #
#> # A tibble: 70 × 2
#>   group group_centrality
#>   <int>            <dbl>
#> 1     1              0.1
#> 2     1              0.1
#> 3     1              0.1
#> 4     1              0.1
#> 5     1              0.1
#> 6     1              0.1
#> # ℹ 64 more rows
#> #
#> # A tibble: 140 × 2
#>    from    to
#>   <int> <int>
#> 1     1     5
#> 2     1     6
#> 3     1     7
#> # ℹ 137 more rows
…
