Change terminal nodes of edges — reroute • tidygraph
…
    Value

An object of the same class as .data

    Examples

# Switch direction of edges
create_notable('meredith') %>%
  activate(edges) %>%
  reroute(from = to, to = from)
#> # A tbl_graph: 70 nodes and 140 edges
#> #
#> # An undirected simple graph with 1 component
#> #
#> # A tibble: 140 × 2
#>    from    to
#>   <int> <int>
#> 1     1     5
#> 2     1     6
#> 3     1     7
#> 4     2     5
#> 5     2     6
#> 6     2     7
#> # ℹ 134 more rows
#> #
#> # A tibble: 70 × 0

# Using subset
create_notable('meredith') %>%
  activate(edges) %>%
  reroute(from = 1, subset = to > 10)
#> # A tbl_graph: 70 nodes and 140 edges
#> #
#> # An undirected multigraph with 17 components
#> #
#> # A tibble: 140 × 2
#>    from    to
#>   <int> <int>
#> 1     1     5
#> 2     1     6
#> 3     1     7
#> 4     2     5
#> 5     2     6
#> 6     2     7
#> # ℹ 134 more rows
…
